Seeds utilizadas nos testes com Benders

Simplex x Benders:
Valores optimos muito proximos-> Seed 14

c: [620, 345, 269, 407, 328]

rho: [[762, 359, 747, 669, 651],
      [209, 574, 489, 878, 667],
      [ 26, 472, 492, 545, 261],
      [974, 139, 651, 513, 471]]

pi:  [[85, 134, 550, 633, 102],
      [ 42, 745, 232, 580, 720],
      [325, 974, 174, 380, 249],
      [786, 764, 897, 160, 778]]


Valores com Benders inf-> Seed: 5

c: [868, 207, 702, 999, 119]

rho: [[ 401,   74,    9,  741,  744],
      [ 959,  412,  625,  671,  721],
      [ 520,  205,  912,  114,  438],
      [1000,   81,   28,   45,  206]]

pi:  [[716,  66, 432, 543, 981],
      [ 87, 638, 147, 255, 378],
      [650, 363,  42, 447, 898],
      [211, 104, 145, 975,   6]]

Valores com Problemas no Benders-> Seed: 20

c: [356, 475, 272, 224, 925]

rho: [[219, 394, 405, 844, 791],
      [584, 163, 993, 119, 553],
      [470, 475, 795, 764, 980],
      [785, 766, 743, 743, 191]]

pi:  [[145, 618, 870, 776, 486],
      [256, 995,   7, 283, 654],
      [972, 955, 538, 900, 715],
      [204, 830, 974, 852, 442]]
